[
    {
        "code": "earthpony",
        "icon": "icon/earthpony-banner-256",
        "traits": [
            "earthaffinity",
            "stronglegs",
            "buck"
        ],
        "model": "horse0",
        "requiredParts": {
    
        },
        "bannedParts": {
            "horn": [
                "kirin",
                "unicorn",
                "unicornlong"
            ],
            "wings": [
                "pegasus",
                "bat"
            ]
        }
    },


    {
        "code": "pegasus",
        "icon": "icon/pegasus-banner-256",
        "traits": [
            "flight",
            "lightweight",
            "warrior",
            "skyaffinity"
        ],
        "model": "horse0",
        "requiredParts": {
            "wings": [
                "pegasus"
            ]
        },
        "bannedParts": {
            "horn": [
                "unicorn",
                "unicornlong"
            ]
        }
    },


    {
        "code": "unicorn",
        "icon": "icon/unicorn-banner-256",
        "traits": [
            "telekinesis",
            "lightunicorn",
            "magicaffinity",
            "levitate"
        ],
        "model": "horse0",
        "requiredParts": {
            "horn": [
                "unicorn",
                "unicornlong"
            ]
        },
        "bannedParts": {
            "wings": [
                "pegasus"
            ]
        }
    },


    {
        "code": "kirin",
        "icon": "icon/kirin-banner-256",
        "traits": [
            "anger",
            "fireproof",
            "telekinesiskirin",
            "lightkirin",
            "nirik"
        ],
        "model": "horse0",
        "requiredParts": {
            "bodyextra": [
                "kirin"
            ],
            "horn": [
                "kirin"
            ]
        },
        "bannedParts": {
            "wings": [
                "pegasus"
            ]
        }
    },


    {
        "code": "bat",
        "icon": "icon/bat-banner-256",
        "traits": [
            "nightaffinity",
            "flightdark",
            "lightweight",
            "cavedweller",
            "forager"
        ],
        "model": "horse0",
        "requiredParts": {
            "wings": [
                "bat"
            ]
        },
        "bannedParts": {
            "horn": [
                "unicorn",
                "unicornlong"
            ]
        }
    },


    {
        "code": "zebra",
        "icon": "icon/zebra-banner-256",
        "traits": [
            "alchemist",
            "earthaffinity",
            "fast",
            "buck"
        ],
        "model": "horse0",
        "requiredParts": {
            "bodyextra": [
                "zecora"
            ]
        },
        "bannedParts": {
            "horn": [
                "unicorn",
                "unicornlong",
                "kirin"
            ],
            "wings": [
                "pegasus"
            ]
        }
    },


    {
        "code": "alicorn",
        "icon": "icon/alicorn-banner-256",
        "model": "horse0",
        "privilege": "alicorn",
        "traits": [
            "telekinesis",
            "lightunicorn",
            "flight",
            "earthaffinity",
            "levitate",
            "buck"
        ],
        "requiredParts": {
            "horn": [
                "unicorn",
                "unicornlong"
            ],
            "wings": [
                "pegasus"
            ]
        },
        "bannedParts": {
    
        }
    },


    {
        "code": "changeling",
        "icon": "icon/bat-banner-256",
        "traits": [
            "nightaffinity",
            "flight",
            "lightweight",
            "cavedweller"
        ],
        "model": "horse0",
        "requiredParts": {
            "bodyextra": [
                "changeling"
            ],
            "horn": [
                "changeling"
            ],
            "wings": [
                "changeling"
            ]
        },
        "bannedParts": {

        }
    }
]