{
	"type": "code",
	"name": "ponyraces",
	"modid": "ponyraces",
	"version": "0.0.11",
	
	"description" : "horse race mechanics for horse mod (requires kemono)",
	"website": "https://gitlab.com/xeth/vintagestory-ponyraces",
	"authors": [ "xeth" ],

	"requiredOnClient": true,
	"requiredOnServer": true,

	"dependencies": {
		"game": "1.20.3",
		"kemono": "0.0.23"
	}
}
